{
    "name": "ressources-like",
    "title": "Carte ressources custom",
    "description": "",
    "acf": {
        "mode": "preview",
        "renderTemplate": "content-res-like-card.php"
    },
    "icon": "pressthis",
    "keywords": ["news", "letter", "newsletter"],
    "align": "true",
    "mode": "false",
    "jsx": "true"
}